…
We will first create a data frame comprised of: x: a random sample of size 1000 from a standard Normal distribution y: a random sample of size 1000 from a standard Normal distribution A logical vector indicating whether the x + y &gt; 0 A numeric vector created by coercing the above logical vector A factor vector created by coercing the above logical vector

``` r
set.seed(1234)
hw1_df2 = tibble(
x = rnorm(1000),
y = rnorm(1000),
z = (x + y) > 0,
nz = as.numeric(z),
fz = as.factor(z)
)
hw1_df2
```

    ## # A tibble: 1,000 x 5
    ##         x      y z        nz fz   
    ##     <dbl>  <dbl> <lgl> <dbl> <fct>
    ##  1 -1.21  -1.21  FALSE     0 FALSE
    ##  2  0.277  0.301 TRUE      1 TRUE 
    ##  3  1.08  -1.54  FALSE     0 FALSE
    ##  4 -2.35   0.635 FALSE     0 FALSE
    ##  5  0.429  0.703 TRUE      1 TRUE 
    ##  6  0.506 -1.91  FALSE     0 FALSE
    ##  7 -0.575  0.939 TRUE      1 TRUE 
    ##  8 -0.547 -0.224 FALSE     0 FALSE
    ##  9 -0.564 -0.674 FALSE     0 FALSE
    ## 10 -0.890  0.446 FALSE     0 FALSE
    ## # ... with 990 more rows
…
